{
  "log": {
    "version": "1.2",
    "creator": {
      "name": "Charles Proxy",
      "version": "3.11.5"
    },
    "entries": [
      {
        "startedDateTime": "2016-07-02T15:10:22.608-04:00",
        "time": 1087,
        "request": {
          "method": "POST",
          "url": "https://apista.tdameritrade.com/apps/300/LogIn?source=TAG",
          "httpVersion": "HTTP/1.1",
          "cookies": [],
          "headers": [
            {
              "name": "Host",
              "value": "apista.tdameritrade.com"
            },
            {
              "name": "Connection",
              "value": "keep-alive"
            },
            {
              "name": "Content-Length",
              "value": "57"
            },
            {
              "name": "Cache-Control",
              "value": "no-cache"
            },
            {
              "name": "Origin",
              "value": "chrome-extension://fhbjgbiflinjbdggehcddcbncdddomop"
            },
            {
              "name": "Content-Type",
              "value": "application/x-www-form-urlencoded"
            },
            {
              "name": "User-Agent",
              "value": "Mozilla/5.0 (Macintosh; Intel Mac OS X 10_11_5) AppleWebKit/537.36 (KHTML, like Gecko) Chrome/51.0.2704.103 Safari/537.36"
            },
            {
              "name": "Postman-Token",
              "value": "9a9298b7-213f-79f3-5445-5adef8408364"
            },
            {
              "name": "Accept",
              "value": "*/*"
            },
            {
              "name": "DNT",
              "value": "1"
            },
            {
              "name": "Accept-Encoding",
              "value": "gzip, deflate, br"
            },
            {
              "name": "Accept-Language",
              "value": "en-US,en;q=0.8"
            },
            {
              "name": "X-mock-scenario",
              "value": "test-mock-1"
            }
          ],
          "queryString": [
            {
              "name": "source",
              "value": "TAG"
            }
          ],
          "postData": {
            "mimeType": "application/x-www-form-urlencoded",
            "params": [
              {
                "name": "userid",
                "value": "apitest5"
              },
              {
                "name": "password",
                "value": "5newtest"
              },
              {
                "name": "source",
                "value": "TAG"
              },
              {
                "name": "version",
                "value": "17.0"
              }
            ]
          },
          "headersSize": 532,
          "bodySize": 57
        },
        "response": {
          "_charlesStatus": "Complete",
          "status": 200,
          "statusText": "OK",
          "httpVersion": "HTTP/1.1",
          "cookies": [
            {
              "name": "JSESSIONID",
              "value": "0C59592ACC6BA1260C6828114B60B8EA.9n9ptixxOWGRubJd45g2lg",
              "path": "/apps",
              "domain": null,
              "expires": null,
              "httpOnly": true,
              "secure": true,
              "comment": null,
              "_maxAge": null
            }
          ],
          "headers": [
            {
              "name": "Date",
              "value": "Sat, 02 Jul 2016 19:10:22 GMT"
            },
            {
              "name": "Server",
              "value": "Apache"
            },
            {
              "name": "Cache-Control",
              "value": "no-store"
            },
            {
              "name": "Expires",
              "value": "Thu, 01 Jan 1970 00:00:00 GMT"
            },
            {
              "name": "Pragma",
              "value": "no-cache"
            },
            {
              "name": "Set-Cookie",
              "value": "JSESSIONID=0C59592ACC6BA1260C6828114B60B8EA.9n9ptixxOWGRubJd45g2lg; Path=/apps; HttpOnly; Secure"
            },
            {
              "name": "Content-Length",
              "value": "3436"
            },
            {
              "name": "Keep-Alive",
              "value": "timeout=15"
            },
            {
              "name": "Connection",
              "value": "Keep-Alive"
            },
            {
              "name": "Content-Type",
              "value": "text/xml;charset=UTF-8"
            }
          ],
          "content": {
            "size": 3436,
            "mimeType": "text/xml;charset=UTF-8",
            "text": "<?xml version=\"1.0\"?><amtd><result>OK<\/result><xml-log-in><session-id>0C59592ACC6BA1260C6828114B60B8EA.9n9ptixxOWGRubJd45g2lg<\/session-id><user-id>apitest5<\/user-id><cdi>A000000022202081<\/cdi><timeout>480<\/timeout><login-time>2016-07-02 15:10:23 EDT<\/login-time><associated-account-id>755651670<\/associated-account-id><nyse-quotes>realtime<\/nyse-quotes><nasdaq-quotes>realtime<\/nasdaq-quotes><opra-quotes>realtime<\/opra-quotes><amex-quotes>realtime<\/amex-quotes><cme-quotes>delayed<\/cme-quotes><ice-quotes>delayed<\/ice-quotes><forex-quotes>delayed<\/forex-quotes><exchange-status>non-professional<\/exchange-status><authorizations><options360>false<\/options360><\/authorizations><accounts><account><account-id>755651670<\/account-id><display-name>apitest5<\/display-name><cdi>A000000022202094<\/cdi><description>INTERNAL API TEST ACCOUNT<\/description><associated-account>true<\/associated-account><company>AMER<\/company><segment>ADVNCED<\/segment><unified>true<\/unified><preferences><express-trading>false<\/express-trading><option-direct-routing>false<\/option-direct-routing><stock-direct-routing>false<\/stock-direct-routing><default-stock-action>BUY<\/default-stock-action><default-stock-order-type>LIMIT<\/default-stock-order-type><default-stock-quantity>100<\/default-stock-quantity><default-stock-expiration>DAY<\/default-stock-expiration><default-stock-special-instructions>NONE<\/default-stock-special-instructions><default-stock-routing>AUTO<\/default-stock-routing><default-stock-display-size><\/default-stock-display-size><stock-tax-lot-method>LIFO<\/stock-tax-lot-method><option-tax-lot-method>FIFO<\/option-tax-lot-method><mutual-fund-tax-lot-method>AVGCOST<\/mutual-fund-tax-lot-method><default-advanced-tool-launch>TA<\/default-advanced-tool-launch><\/preferences><authorizations><apex>true<\/apex><level2>true<\/level2><stock-trading>true<\/stock-trading><margin-trading>true<\/margin-trading><streaming-news>true<\/streaming-news><option-trading>full<\/option-trading><streamer>true<\/streamer><advanced-margin>true<\/advanced-margin><\/authorizations><\/account><account><account-id>755239803<\/account-id><display-name>apitest3<\/display-name><cdi>A000000021907487<\/cdi><description>INTERNAL API TEST ACCOUNT<\/description><associated-account>false<\/associated-account><company>AMER<\/company><segment>AMER<\/segment><unified>true<\/unified><preferences><express-trading>false<\/express-trading><option-direct-routing>true<\/option-direct-routing><stock-direct-routing>true<\/stock-direct-routing><default-stock-action>NONE<\/default-stock-action><default-stock-order-type>MARKET<\/default-stock-order-type><default-stock-quantity>100<\/default-stock-quantity><default-stock-expiration>DAY<\/default-stock-expiration><default-stock-special-instructions>NONE<\/default-stock-special-instructions><default-stock-routing>AUTO<\/default-stock-routing><default-stock-display-size><\/default-stock-display-size><stock-tax-lot-method>FIFO<\/stock-tax-lot-method><option-tax-lot-method>FIFO<\/option-tax-lot-method><mutual-fund-tax-lot-method>FIFO<\/mutual-fund-tax-lot-method><default-advanced-tool-launch>TA<\/default-advanced-tool-launch><\/preferences><authorizations><apex>true<\/apex><level2>true<\/level2><stock-trading>true<\/stock-trading><margin-trading>true<\/margin-trading><streaming-news>true<\/streaming-news><option-trading>full<\/option-trading><streamer>true<\/streamer><advanced-margin>true<\/advanced-margin><\/authorizations><\/account><\/accounts><\/xml-log-in><\/amtd>"
          },
          "redirectURL": null,
          "headersSize": 373,
          "bodySize": 3436
        },
        "serverIPAddress": "216.105.251.201",
        "cache": {},
        "timings": {
          "dns": 435,
          "connect": 194,
          "ssl": 194,
          "send": 2,
          "wait": 454,
          "receive": 2
        }
      },
      {
        "startedDateTime": "2016-07-02T15:10:28.476-04:00",
        "time": 102,
        "request": {
          "method": "GET",
          "url": "https://apista.tdameritrade.com/apps/100/Quote?source=TAG&symbol=AAPL",
          "httpVersion": "HTTP/1.1",
          "cookies": [
            {
              "name": "JSESSIONID",
              "value": "0C59592ACC6BA1260C6828114B60B8EA.9n9ptixxOWGRubJd45g2lg"
            }
          ],
          "headers": [
            {
              "name": "Host",
              "value": "apista.tdameritrade.com"
            },
            {
              "name": "Connection",
              "value": "keep-alive"
            },
            {
              "name": "Cache-Control",
              "value": "no-cache"
            },
            {
              "name": "User-Agent",
              "value": "Mozilla/5.0 (Macintosh; Intel Mac OS X 10_11_5) AppleWebKit/537.36 (KHTML, like Gecko) Chrome/51.0.2704.103 Safari/537.36"
            },
            {
              "name": "Postman-Token",
              "value": "bcba6e58-5153-4a8b-f269-cdbd1e5a60a1"
            },
            {
              "name": "Accept",
              "value": "*/*"
            },
            {
              "name": "DNT",
              "value": "1"
            },
            {
              "name": "Accept-Encoding",
              "value": "gzip, deflate, sdch, br"
            },
            {
              "name": "Accept-Language",
              "value": "en-US,en;q=0.8"
            },
            {
              "name": "Cookie",
              "value": "JSESSIONID=0C59592ACC6BA1260C6828114B60B8EA.9n9ptixxOWGRubJd45g2lg"
            }
          ],
          "queryString": [
            {
              "name": "source",
              "value": "TAG"
            },
            {
              "name": "symbol",
              "value": "AAPL"
            }
          ],
          "headersSize": 495,
          "bodySize": 0
        },
        "response": {
          "_charlesStatus": "Complete",
          "status": 200,
          "statusText": "OK",
          "httpVersion": "HTTP/1.1",
          "cookies": [],
          "headers": [
            {
              "name": "Date",
              "value": "Sat, 02 Jul 2016 19:10:28 GMT"
            },
            {
              "name": "Server",
              "value": "Apache"
            },
            {
              "name": "Cache-Control",
              "value": "no-store"
            },
            {
              "name": "Expires",
              "value": "Thu, 01 Jan 1970 00:00:00 GMT"
            },
            {
              "name": "Pragma",
              "value": "no-cache"
            },
            {
              "name": "Content-Length",
              "value": "663"
            },
            {
              "name": "Keep-Alive",
              "value": "timeout=15"
            },
            {
              "name": "Connection",
              "value": "Keep-Alive"
            },
            {
              "name": "Content-Type",
              "value": "text/xml;charset=UTF-8"
            }
          ],
          "content": {
            "size": 663,
            "mimeType": "text/xml;charset=UTF-8",
            "text": "<?xml version=\"1.0\"?><amtd><result>OK<\/result><quote-list><error><\/error><quote><error><\/error><symbol>AAPL<\/symbol><description>APPLE INC COM<\/description><bid>95.95<\/bid><ask>95.98<\/ask><bid-ask-size>9400X500<\/bid-ask-size><last>95.89<\/last><last-trade-size>1234200<\/last-trade-size><last-trade-date>2016-07-01 16:00:00 EDT<\/last-trade-date><open>95.49<\/open><high>96.465<\/high><low>95.33<\/low><close>95.89<\/close><volume>26026540<\/volume><year-high>132.97<\/year-high><year-low>89.47<\/year-low><real-time>true<\/real-time><exchange>NASDAQ<\/exchange><asset-type>E<\/asset-type><change>0.00<\/change><change-percent>0.00%<\/change-percent><\/quote><\/quote-list><\/amtd>"
          },
          "redirectURL": null,
          "headersSize": 262,
          "bodySize": 663
        },
        "serverIPAddress": "216.105.251.201",
        "cache": {},
        "timings": {
          "dns": -1,
          "connect": -1,
          "ssl": -1,
          "send": 3,
          "wait": 98,
          "receive": 1
        }
      },
      {
        "startedDateTime": "2016-07-05T04:40:17.974-04:00",
        "time": 375,
        "request": {
          "method": "GET",
          "url": "https://apista.tdameritrade.com/apps/100/Quote",
          "httpVersion": "HTTP/1.1",
          "cookies": [
            {
              "name": "JSESSIONID",
              "value": "C2A61B1BF184B29F9B57BA7FD02E744C.BaqKc2zxYfPJxdjBPcqWPg"
            },
            {
              "name": "JSESSIONID",
              "value": "C2A61B1BF184B29F9B57BA7FD02E744C.BaqKc2zxYfPJxdjBPcqWPg"
            }
          ],
          "headers": [
            {
              "name": "Host",
              "value": "apista.tdameritrade.com"
            },
            {
              "name": "Connection",
              "value": "keep-alive"
            },
            {
              "name": "Cache-Control",
              "value": "no-cache"
            },
            {
              "name": "User-Agent",
              "value": "Mozilla/5.0 (Macintosh; Intel Mac OS X 10_11_5) AppleWebKit/537.36 (KHTML, like Gecko) Chrome/51.0.2704.103 Safari/537.36"
            },
            {
              "name": "Postman-Token",
              "value": "0589f463-9c3b-9443-99cd-a9620a6b3ba1"
            },
            {
              "name": "Accept",
              "value": "*/*"
            },
            {
              "name": "DNT",
              "value": "1"
            },
            {
              "name": "Accept-Encoding",
              "value": "gzip, deflate, sdch, br"
            },
            {
              "name": "Accept-Language",
              "value": "en-US,en;q=0.8"
            },
            {
              "name": "Cookie",
              "value": "JSESSIONID=C2A61B1BF184B29F9B57BA7FD02E744C.BaqKc2zxYfPJxdjBPcqWPg; JSESSIONID=C2A61B1BF184B29F9B57BA7FD02E744C.BaqKc2zxYfPJxdjBPcqWPg"
            },
            {
              "name": "X-mock-scenario",
              "value": "test-mock-2"
            }
          ],
          "queryString": [],
          "headersSize": 540,
          "bodySize": 0
        },
        "response": {
          "_charlesStatus": "Complete",
          "status": 200,
          "statusText": "OK",
          "httpVersion": "HTTP/1.1",
          "cookies": [],
          "headers": [
            {
              "name": "Date",
              "value": "Tue, 05 Jul 2016 08:40:18 GMT"
            },
            {
              "name": "Server",
              "value": "Apache"
            },
            {
              "name": "Cache-Control",
              "value": "no-store"
            },
            {
              "name": "Expires",
              "value": "Thu, 01 Jan 1970 00:00:00 GMT"
            },
            {
              "name": "Pragma",
              "value": "no-cache"
            },
            {
              "name": "Content-Length",
              "value": "134"
            },
            {
              "name": "Keep-Alive",
              "value": "timeout=15"
            },
            {
              "name": "Connection",
              "value": "Keep-Alive"
            },
            {
              "name": "Content-Type",
              "value": "text/xml;charset=UTF-8"
            }
          ],
          "content": {
            "size": 134,
            "mimeType": "text/xml;charset=UTF-8",
            "text": "<?xml version=\"1.0\"?><amtd><result>FAIL<\/result><error>You must enter a Symbol or list of Symbols separated by a space.<\/error><\/amtd>"
          },
          "redirectURL": null,
          "headersSize": 262,
          "bodySize": 134
        },
        "serverIPAddress": "216.105.251.201",
        "cache": {},
        "timings": {
          "dns": -1,
          "connect": -1,
          "ssl": -1,
          "send": 2,
          "wait": 373,
          "receive": 0
        }
      },
      {
        "startedDateTime": "2016-07-05T04:50:48.270-04:00",
        "time": 298,
        "request": {
          "method": "POST",
          "url": "https://apista.tdameritrade.com/apps/300/LogIn",
          "httpVersion": "HTTP/1.1",
          "cookies": [
            {
              "name": "JSESSIONID",
              "value": "C2A61B1BF184B29F9B57BA7FD02E744C.BaqKc2zxYfPJxdjBPcqWPg"
            },
            {
              "name": "JSESSIONID",
              "value": "C2A61B1BF184B29F9B57BA7FD02E744C.BaqKc2zxYfPJxdjBPcqWPg"
            }
          ],
          "headers": [
            {
              "name": "Host",
              "value": "apista.tdameritrade.com"
            },
            {
              "name": "Connection",
              "value": "keep-alive"
            },
            {
              "name": "Content-Length",
              "value": "0"
            },
            {
              "name": "Cache-Control",
              "value": "no-cache"
            },
            {
              "name": "Origin",
              "value": "chrome-extension://fhbjgbiflinjbdggehcddcbncdddomop"
            },
            {
              "name": "Content-Type",
              "value": "application/x-www-form-urlencoded"
            },
            {
              "name": "User-Agent",
              "value": "Mozilla/5.0 (Macintosh; Intel Mac OS X 10_11_5) AppleWebKit/537.36 (KHTML, like Gecko) Chrome/51.0.2704.103 Safari/537.36"
            },
            {
              "name": "Postman-Token",
              "value": "512700d2-5bd1-059a-1790-11e9b4572698"
            },
            {
              "name": "Accept",
              "value": "*/*"
            },
            {
              "name": "DNT",
              "value": "1"
            },
            {
              "name": "Accept-Encoding",
              "value": "gzip, deflate, br"
            },
            {
              "name": "Accept-Language",
              "value": "en-US,en;q=0.8"
            },
            {
              "name": "Cookie",
              "value": "JSESSIONID=C2A61B1BF184B29F9B57BA7FD02E744C.BaqKc2zxYfPJxdjBPcqWPg; JSESSIONID=C2A61B1BF184B29F9B57BA7FD02E744C.BaqKc2zxYfPJxdjBPcqWPg"
            },
            {
              "name": "X-mock-scenario",
              "value": "test-mock-2"
            }
          ],
          "queryString": [],
          "postData": {
            "mimeType": "application/x-www-form-urlencoded",
            "params": []
          },
          "headersSize": 664,
          "bodySize": 0
        },
        "response": {
          "_charlesStatus": "Complete",
          "status": 200,
          "statusText": "OK",
          "httpVersion": "HTTP/1.1",
          "cookies": [],
          "headers": [
            {
              "name": "Date",
              "value": "Tue, 05 Jul 2016 08:50:48 GMT"
            },
            {
              "name": "Server",
              "value": "Apache"
            },
            {
              "name": "Cache-Control",
              "value": "no-store"
            },
            {
              "name": "Expires",
              "value": "Thu, 01 Jan 1970 00:00:00 GMT"
            },
            {
              "name": "Pragma",
              "value": "no-cache"
            },
            {
              "name": "Content-Length",
              "value": "97"
            },
            {
              "name": "Keep-Alive",
              "value": "timeout=15"
            },
            {
              "name": "Connection",
              "value": "Keep-Alive"
            },
            {
              "name": "Content-Type",
              "value": "text/xml;charset=UTF-8"
            }
          ],
          "content": {
            "size": 97,
            "mimeType": "text/xml;charset=UTF-8",
            "text": "<?xml version=\"1.0\"?><amtd><result>FAIL<\/result><error>Unable to authorize access.<\/error><\/amtd>"
          },
          "redirectURL": null,
          "headersSize": 261,
          "bodySize": 97
        },
        "serverIPAddress": "216.105.251.201",
        "cache": {},
        "timings": {
          "dns": 0,
          "connect": 237,
          "ssl": 237,
          "send": 2,
          "wait": 58,
          "receive": 1
        }
      }
    ]
  }
}